Partial function constructor for ggplot2 cut functions — cut_interval.fun • rOstluft.plot
…
    Examples

data <- tibble::tibble(x = runif(100, 0, 10))

funs <- list(
  interval = cut_interval.fun(n = 5),
  number = cut_number.fun(n = 5),
  width = cut_width.fun(width = 2, boundary = 0)
)

res <- dplyr::mutate_all(tibble::tibble(x = runif(100, 0, 10)), funs)

res
#> # A tibble: 100 × 4
#>        x interval    number      width 
#>    <dbl> <fct>       <fct>       <fct> 
#>  1  6.49 (5.94,7.89] (5.16,6.52] (6,8] 
#>  2  9.85 (7.89,9.85] (8.13,9.85] (8,10]
#>  3  5.36 (3.99,5.94] (5.16,6.52] (4,6] 
#>  4  7.61 (5.94,7.89] (6.52,8.13] (6,8] 
#>  5  5.64 (3.99,5.94] (5.16,6.52] (4,6] 
#>  6  7.78 (5.94,7.89] (6.52,8.13] (6,8] 
#>  7  6.39 (5.94,7.89] (5.16,6.52] (6,8] 
#>  8  3.79 (2.04,3.99] (2.16,5.16] (2,4] 
#>  9  3.60 (2.04,3.99] (2.16,5.16] (2,4] 
#> 10  8.44 (7.89,9.85] (8.13,9.85] (8,10]
#> # ℹ 90 more rows
…
