Summarise a rOstluft::format_rolf() dataset over periodic (diurnal, weekday, etc) factors implicitly created by cut_timeseries_periodic() using various stat functions. — summary_periodic • rOstluft.pl
…
    Examples

fn <- rOstluft.data::f("Zch_Stampfenbachstrasse_2010-2014.csv")

data <-
  rOstluft::read_airmo_csv(fn) %>%
  rOstluft::pluck_parameter("NOx", "O3", "PM10") %>%
  rOstluft::resample(new_interval = "h1")

fun <- list(middle = "mean", middle2 = "median", ymin = "percentile05",
           lower = "percentile25", upper = "percentile75", ymax = "percentile95")

data_summarized <- summary_periodic(data, fun = fun)
data_summarized
#> # A tibble: 432 × 9
#>    starttime_of_day site        parameter interval unit      n  freq stat  value
#>    <ord>            <fct>       <fct>     <fct>    <fct> <int> <dbl> <fct> <dbl>
#>  1 00:00            Zch_Stampf… NOx       h1       ppb    1826 0.333 midd… 24.0 
#>  2 00:00            Zch_Stampf… NOx       h1       ppb    1826 0.333 midd… 17.1 
#>  3 00:00            Zch_Stampf… NOx       h1       ppb    1826 0.333 ymin   4.07
#>  4 00:00            Zch_Stampf… NOx       h1       ppb    1826 0.333 lower  9.05
#>  5 00:00            Zch_Stampf… NOx       h1       ppb    1826 0.333 upper 30.6 
#>  6 00:00            Zch_Stampf… NOx       h1       ppb    1826 0.333 ymax  68.3 
#>  7 00:00            Zch_Stampf… O3        h1       µg/m3  1826 0.333 midd… 38.0 
#>  8 00:00            Zch_Stampf… O3        h1       µg/m3  1826 0.333 midd… 38.6 
#>  9 00:00            Zch_Stampf… O3        h1       µg/m3  1826 0.333 ymin   1.29
#> 10 00:00            Zch_Stampf… O3        h1       µg/m3  1826 0.333 lower 12.5 
#> # … with 422 more rows
…
