Summarise z values over binned wind data. — summary_wind • rOstluft.plot
…
n count of occurrences for the corresponding bin

freq frequency of the corresponding bin

    Examples

library(ggplot2)
fn <- rOstluft.data::f("Zch_Stampfenbachstrasse_2010-2014.csv")
data <- rOstluft::read_airmo_csv(fn)
data <- rOstluft::rolf_to_openair(data)
data <- dplyr::mutate(data, year = lubridate::year(date))

summary_wind(data, "ws", "wd", "NO2")
#> # A tibble: 55 x 6
#>    ws    wd        n   freq stat    NO2
#>    <fct> <fct> <int>  <dbl> <fct> <dbl>
#>  1 [0,1] N      4187 0.0482 mean   45.3
#>  2 [0,1] NO     2383 0.0274 mean   43.7
#>  3 [0,1] O      1093 0.0126 mean   44.4
#>  4 [0,1] SO     2070 0.0238 mean   45.7
#>  5 [0,1] S      3311 0.0381 mean   46.4
#>  6 [0,1] SW     3888 0.0448 mean   44.7
#>  7 [0,1] W      4478 0.0516 mean   41.3
#>  8 [0,1] NW     2787 0.0321 mean   40.8
#>  9 (1,2] N     11320 0.130  mean   42.2
#> 10 (1,2] NO     3742 0.0431 mean   37.2
#> # ... with 45 more rows

# multiple stats: Pass function, by name, reference, as function or one sided formula
q95 <- function(x) stats::quantile(x, probs = 0.95)

funs <- list(
  "mean",
  "median",
  "q95_1" = q95,
  "q95_2" = function(x) stats::quantile(x, probs = 0.95),
  "q95_3" = ~ stats::quantile(., probs = 0.95)
)

res <- summary_wind(data, "ws", "wd", "NO2", fun = funs)
res
#> # A tibble: 275 x 6
#>    ws    wd        n   freq stat    NO2
#>    <fct> <fct> <int>  <dbl> <fct> <dbl>
#>  1 [0,1] N      4187 0.0482 mean   45.3
#>  2 [0,1] NO     2383 0.0274 mean   43.7
#>  3 [0,1] O      1093 0.0126 mean   44.4
#>  4 [0,1] SO     2070 0.0238 mean   45.7
#>  5 [0,1] S      3311 0.0381 mean   46.4
#>  6 [0,1] SW     3888 0.0448 mean   44.7
#>  7 [0,1] W      4478 0.0516 mean   41.3
#>  8 [0,1] NW     2787 0.0321 mean   40.8
#>  9 (1,2] N     11320 0.130  mean   42.2
#> 10 (1,2] NO     3742 0.0431 mean   37.2
#> # ... with 265 more rows

# and q95, q95_1, q95_2, q95_3 alle have the same value
tidyr::spread(res, "stat", "NO2") %>%
  dplyr::select(q95_1, q95_2, q95_3)
#> # A tibble: 55 x 3
#>    q95_1 q95_2 q95_3
#>    <dbl> <dbl> <dbl>
#>  1  83.2  83.2  83.2
#>  2  78.7  78.7  78.7
#>  3  83.3  83.3  83.3
#>  4  88.7  88.7  88.7
#>  5  88.0  88.0  88.0
#>  6  80.4  80.4  80.4
#>  7  76.2  76.2  76.2
#>  8  77.6  77.6  77.6
#>  9  79.1  79.1  79.1
#> 10  68.8  68.8  68.8
#> # ... with 45 more rows

# is for some reason fun.args used with multiple functions, use ... to catch
# superfluous arguments:
funs <- list(
  "q95" = function(x, ...) stats::quantile(x, probs = 0.95),
  "mean"
)
summary_wind(data, "ws", "wd", "NO2", fun = funs, fun.args = list(na.rm = TRUE))
#> # A tibble: 110 x 6
#>    ws    wd        n   freq stat    NO2
#>    <fct> <fct> <int>  <dbl> <fct> <dbl>
#>  1 [0,1] N      4187 0.0482 q95    83.2
#>  2 [0,1] NO     2383 0.0274 q95    78.7
#>  3 [0,1] O      1093 0.0126 q95    83.3
#>  4 [0,1] SO     2070 0.0238 q95    88.7
#>  5 [0,1] S      3311 0.0381 q95    88.0
#>  6 [0,1] SW     3888 0.0448 q95    80.4
#>  7 [0,1] W      4478 0.0516 q95    76.2
#>  8 [0,1] NW     2787 0.0321 q95    77.6
#>  9 (1,2] N     11320 0.130  q95    79.1
#> 10 (1,2] NO     3742 0.0431 q95    68.8
#> # ... with 100 more rows

# more wd classes, less ws classes and squish ws
summary_wind(data, "ws", "wd", "NO",
             wd_cutfun = cut_wd.fun(binwidth = 22.5),
             ws_cutfun = cut_ws.fun(binwidth = 2, ws_max = 6))
#> # A tibble: 53 x 6
#>    ws    wd        n    freq stat     NO
#>    <fct> <fct> <int>   <dbl> <fct> <dbl>
#>  1 [0,2] N      6000 0.0691  mean   31.7
#>  2 [0,2] NNO    9507 0.109   mean   32.9
#>  3 [0,2] NO     4559 0.0525  mean   24.2
#>  4 [0,2] NOO    1566 0.0180  mean   22.3
#>  5 [0,2] O       831 0.00957 mean   21.1
#>  6 [0,2] SOO     827 0.00952 mean   22.4
#>  7 [0,2] SO     1978 0.0228  mean   17.1
#>  8 [0,2] SSO    4900 0.0564  mean   20.5
#>  9 [0,2] S      3991 0.0459  mean   23.5
#> 10 [0,2] SSW    2888 0.0332  mean   22.4
#> # ... with 43 more rows
…
# additional grouping with strings, symbols or named expressions
summary_wind(data, ws, wd, NO2, group = grp("site", year, wday = lubridate::wday(date)))
#> # A tibble: 1,247 x 9
#>    ws    wd    site                     year  wday     n   freq stat    NO2
#>    <fct> <fct> <fct>                   <dbl> <dbl> <int>  <dbl> <fct> <dbl>
#>  1 [0,1] N     Zch_Stampfenbachstrasse  2010     1    98 0.0393 mean   38.1
#>  2 [0,1] N     Zch_Stampfenbachstrasse  2010     2   116 0.0472 mean   50.4
#>  3 [0,1] N     Zch_Stampfenbachstrasse  2010     3   131 0.0532 mean   48.6
#>  4 [0,1] N     Zch_Stampfenbachstrasse  2010     4   129 0.0524 mean   51.0
#>  5 [0,1] N     Zch_Stampfenbachstrasse  2010     5   104 0.0422 mean   47.3
#>  6 [0,1] N     Zch_Stampfenbachstrasse  2010     6   114 0.0460 mean   50.0
#>  7 [0,1] N     Zch_Stampfenbachstrasse  2010     7    99 0.0397 mean   43.4
#>  8 [0,1] N     Zch_Stampfenbachstrasse  2011     1   147 0.0600 mean   35.7
#>  9 [0,1] N     Zch_Stampfenbachstrasse  2011     2   123 0.0499 mean   47.1
#> 10 [0,1] N     Zch_Stampfenbachstrasse  2011     3   115 0.0466 mean   48.4
#> # ... with 1,237 more rows

# how often comes which concentration from one direction
summary_wind(data, NULL, wd, NO2,
             group = grp(NO2_class = ggplot2::cut_number(NO2, 5)))
#> # A tibble: 40 x 6
#>    wd    NO2_class        n   freq stat    NO2
#>    <fct> <fct>        <int>  <dbl> <fct> <dbl>
#>  1 N     [0.066,15.9]  1770 0.102  mean   12.3
#>  2 N     (15.9,25.6]   3659 0.211  mean   21.0
#>  3 N     (25.6,36.5]   5193 0.299  mean   31.0
#>  4 N     (36.5,51.2]   5597 0.322  mean   43.4
#>  5 N     (51.2,148]    6159 0.355  mean   66.8
#>  6 NO    [0.066,15.9]  1146 0.0660 mean   12.1
#>  7 NO    (15.9,25.6]   2039 0.117  mean   20.9
#>  8 NO    (25.6,36.5]   2525 0.145  mean   30.9
#>  9 NO    (36.5,51.2]   2276 0.131  mean   43.2
#> 10 NO    (51.2,148]    1705 0.0982 mean   64.7
#> # ... with 30 more rows

# the same but we use ws as pollutant
summary_wind(data, NO2, wd, NO2, ws_cutfun = cut_number.fun(5))
#> # A tibble: 40 x 6
#>    NO2          wd        n    freq stat  NO2.stat
#>    <fct>        <fct> <int>   <dbl> <fct>    <dbl>
#>  1 [0.066,15.9] N      1771 0.0204  mean     12.3 
#>  2 [0.066,15.9] NO     1146 0.0132  mean     12.1 
#>  3 [0.066,15.9] O       198 0.00228 mean     11.4 
#>  4 [0.066,15.9] SO     1913 0.0220  mean     11.0 
#>  5 [0.066,15.9] S      1622 0.0187  mean     10.7 
#>  6 [0.066,15.9] SW     6446 0.0742  mean      9.79
#>  7 [0.066,15.9] W      3423 0.0394  mean     10.7 
#>  8 [0.066,15.9] NW      858 0.00988 mean     12.0 
#>  9 (15.9,25.6]  N      3659 0.0421  mean     21.0 
#> 10 (15.9,25.6]  NO     2042 0.0235  mean     20.9 
#> # ... with 30 more rows
…
